{
  "images" : [
    {
      "idiom" : "universal",
      "filename" : "study.pdf"
    }
  ],
  "info" : {
    "version" : 1,
    "author" : "xcode"
  },
  "properties" : {
    "compression-type" : "lossless"
  }
}